College Football Third-and-Six Trends – Sports Data Class Blog
…
pbp_data <- load_cfb_pbp(seasons = 2021:2025)

Code

third_and_six <- pbp_data |> 
  filter(down == 3, distance == 6)

Code

third_and_six |> 
  group_by(play_type)  |> 
  summarize(count = n())  |> 
  arrange(desc(count))

# A tibble: 24 × 2
   play_type                  count
   <chr>                      <int>
 1 Pass Reception              5026
 2 Pass Incompletion           4020
 3 Rush                        3397
 4 Penalty                     1138
 5 Timeout                      982
 6 Sack                         825
 7 Passing Touchdown            528
 8 Interception Return          259
 9 Rushing Touchdown            147
10 Fumble Recovery (Opponent)    97
# ℹ 14 more rows
…
Of the total 16,531 plays, 3383 or 20.46% were run averaging 5.68 yards gained.

Code

third_and_six  |> 
  filter(play_type == "Rush")  |> 
  group_by(season, offense_play)  |> 
  summarize(run_plays = n())  |> 
  arrange(desc(run_plays))

`summarise()` has grouped output by 'season'. You can override using the
`.groups` argument.

# A tibble: 1,109 × 3
# Groups:   season [5]
   season offense_play   run_plays
    <int> <chr>              <int>
 1   2021 Army                  16
 2   2022 Navy                  16
 3   2021 Baylor                13
 4   2024 Davidson              13
 5   2022 Kennesaw State        12
 6   2023 Air Force             12
 7   2023 South Florida         12
 8   2021 Arkansas              10
 9   2021 Kent State            10
10   2021 Louisiana             10
# ℹ 1,099 more rows
…
