Red Zone Rises and Falls: Tracking NFL Teams’ EPA Growth Through Week 9 – Sports Data Class Blog
…
pbp25 <- load_pbp(2025)

nflredzoneweek3 <- pbp25  |> 
filter(
week <= 3,
yardline_100 <= 20,
play_type %in% c('run', 'pass'))|> 
group_by(posteam) |> 
  summarise(
week3_plays = n(),
week3_total_epa = sum(epa, na.rm = TRUE)
)
nflredzoneweek3

# A tibble: 32 × 3
   posteam week3_plays week3_total_epa
   <chr>         <int>           <dbl>
 1 ARI              24           0.762
 2 ATL              25          -6.51 
 3 BAL              24          -8.44 
 4 BUF              48           8.29 
 5 CAR              37          -0.523
 6 CHI              23           9.68 
 7 CIN              22           7.13 
 8 CLE              23           6.81 
 9 DAL              30          -5.45 
10 DEN              19           5.97 
# ℹ 22 more rows

nflredzone25 <- pbp25  |> 
filter(
yardline_100 <= 20,
play_type %in% c('run', 'pass'))|>
group_by(posteam) |> 
  summarise(
total_plays = n(),
total_epa = sum(epa, na.rm = TRUE),
)
nflredzone25

# A tibble: 32 × 3
   posteam total_plays total_epa
   <chr>         <int>     <dbl>
 1 ARI              80     0.105
 2 ATL              66    -3.32 
 3 BAL              74    -9.47 
 4 BUF              88    15.7  
 5 CAR              91     6.58 
 6 CHI              95    -2.74 
 7 CIN              76    19.6  
 8 CLE              77    -0.216
 9 DAL              98    -3.12 
10 DEN              84    25.2  
# ℹ 22 more rows
…
